{
	"id": "56e0a9d2-778d-4776-a9c3-d80445232f5b",
	"name": "devDocker",
	"values": [
		{
			"key": "host",
			"value": "localhost",
			"enabled": true
		},
		{
			"key": "port",
			"value": "15080",
			"enabled": true
		}
	],
	"_postman_variable_scope": "environment",
	"_postman_exported_at": "2019-07-14T18:18:45.212Z",
	"_postman_exported_using": "Postman/7.3.3"
}